uart/uart.sim/sim_1/behav/xsim/dump.vcd
$date
   Sun Jul 27 18:11:10 2025
$end

$version
  2024.1
  $dumpfile ("dump.vcd") 
$end

$timescale
  1ps
$end

$scope module tb $end
$var reg 32 ! env $end
$scope module vif $end
$var reg 1 " clk $end
$var reg 1 # uclktx $end
$var reg 1 $ uclkrx $end
$var reg 1 % rst $end
$var reg 1 & rx $end
$var reg 8 ' dintx [7:0] $end
$var reg 1 ( newd $end
$var reg 1 ) tx $end
$var reg 8 * doutrx [7:0] $end
$var reg 1 + donetx $end
$var reg 1 , donerx $end
$upscope $end
$scope module dut $end
$var wire 1 - clk $end
$var wire 1 . rst $end
$var wire 1 / rx $end
$var wire 8 0 dintx [7:0] $end
$var wire 1 1 newd $end
$var wire 1 2 tx $end
$var wire 8 3 doutrx [7:0] $end
$var wire 1 4 donetx $end
$var wire 1 5 donerx $end
$scope module utx $end
$var wire 1 - clk $end
$var wire 1 . rst $end
$var wire 1 1 newd $end
$var wire 8 0 tx_data [7:0] $end
$var reg 1 6 tx $end
$var reg 1 7 donetx $end
$var integer 32 8 count [31:0] $end
$var integer 32 9 counts [31:0] $end
$var reg 1 : uclk $end
$var reg 2 ; state $end
$var reg 8 < din [7:0] $end
$upscope $end
$scope module rtx $end
$var wire 1 - clk $end
$var wire 1 . rst $end
$var wire 1 / rx $end
$var reg 1 = done $end
$var reg 8 > rxdata [7:0] $end
$var integer 32 ? count [31:0] $end
$var integer 32 @ counts [31:0] $end
$var reg 1 A uclk $end
$var reg 2 B state $end
$upscope $end
$upscope $end
$upscope $end
$enddefinitions $end

#0
$dumpvars
b100001110101110000000000111000 !
0"
0#
0$
1%
1&
b0 '
0(
x)
bx *
x+
x,
0-
1.
1/
b0 0
01
x2
bx 3
x4
x5
x6
x7
b0 8
b0 9
0:
b0 ;
bx <
x=
bx >
b0 ?
b0 @
0A
b0 B
$end

#10000
1"
1-
b1 8
b1 ?

#20000
0"
0-

#30000
1"
1-
b10 8
b10 ?

#40000
0"
0-

#50000
1"
1-
b11 8
b11 ?

#60000
0"
0-

#70000
1"
1-
b100 8
b100 ?

#80000
0"
0-

#90000
1"
1-
b101 8
b101 ?

#100000
0"
0-

#110000
1"
1-
b110 8
b110 ?

#120000
0"
0-

#130000
1"
1-
b111 8
b111 ?

#140000
0"
0-

#150000
1"
1-
b1000 8
b1000 ?

#160000
0"
0-

#170000
1"
1-
b1001 8
b1001 ?

#180000
0"
0-

#190000
1"
1-
b1010 8
b1010 ?

#200000
0"
0-

#210000
1"
1-
b1011 8
b1011 ?

#220000
0"
0-

#230000
1"
1-
b1100 8
b1100 ?

#240000
0"
0-

#250000
1"
1-
b1101 8
b1101 ?

#260000
0"
0-

#270000
1"
1-
b1110 8
b1110 ?

#280000
0"
0-

#290000
1"
1-
b1111 8
b1111 ?

#300000
0"
0-

#310000
1"
1-
b10000 8
b10000 ?

#320000
0"
0-

#330000
1"
1-
b10001 8
b10001 ?

#340000
0"
0-

#350000
1"
1-
b10010 8
b10010 ?

#360000
0"
0-

#370000
1"
1-
b10011 8
b10011 ?

#380000
0"
0-

#390000
1"
1-
b10100 8
b10100 ?

#400000
0"
0-

#410000
1"
1-
b10101 8
b10101 ?

#420000
0"
0-

#430000
1"
1-
b10110 8
b10110 ?

#440000
0"
0-

#450000
1"
1-
b10111 8
b10111 ?

#460000
0"
0-

#470000
1"
1-
b11000 8
b11000 ?

#480000
0"
0-

#490000
1"
1-
b11001 8
b11001 ?

#500000
0"
0-

#510000
1"
1-
b11010 8
b11010 ?

#520000
0"
0-

#530000
1"
1-
b11011 8
b11011 ?

#540000
0"
0-

#550000
1"
1-
b11100 8
b11100 ?

#560000
0"
0-

#570000
1"
1-
b11101 8
b11101 ?

#580000
0"
0-

#590000
1"
1-
b11110 8
b11110 ?

#600000
0"
0-

#610000
1"
1-
b11111 8
b11111 ?

#620000
0"
0-

#630000
1"
1-
b100000 8
b100000 ?

#640000
0"
0-

#650000
1"
1-
b100001 8
b100001 ?

#660000
0"
0-

#670000
1"
1-
b100010 8
b100010 ?

#680000
0"
0-

#690000
1"
1-
b100011 8
b100011 ?

#700000
0"
0-

#710000
1"
1-
b100100 8
b100100 ?

#720000
0"
0-

#730000
1"
1-
b100101 8
b100101 ?

#740000
0"
0-

#750000
1"
1-
b100110 8
b100110 ?

#760000
0"
0-

#770000
1"
1-
b100111 8
b100111 ?

#780000
0"
0-

#790000
1"
1-
b101000 8
b101000 ?

#800000
0"
0-

#810000
1"
1-
b101001 8
b101001 ?

#820000
0"
0-

#830000
1"
1-
b101010 8
b101010 ?

#840000
0"
0-

#850000
1"
1-
b101011 8
b101011 ?

#860000
0"
0-

#870000
1"
1-
b101100 8
b101100 ?

#880000
0"
0-

#890000
1"
1-
b101101 8
b101101 ?

#900000
0"
0-

#910000
1"
1-
b101110 8
b101110 ?

#920000
0"
0-

#930000
1"
1-
b101111 8
b101111 ?

#940000
0"
0-

#950000
1"
1-
b110000 8
b110000 ?

#960000
0"
0-

#970000
1"
1-
b110001 8
b110001 ?

#980000
0"
0-

#990000
1"
1-
b110010 8
b110010 ?
